1 0.5073051948051948 0.5103346456692913 0.035173160173160176 0.1437007874015748
1 0.5073051948051948 0.5088582677165354 0.027597402597402596 0.140748031496063
1 0.5091991341991342 0.5103346456692913 0.023809523809523808 0.12598425196850394
1 0.5089285714285714 0.5103346456692913 0.01893939393939394 0.0984251968503937