1 0.5089285714285714 0.5113188976377953 0.024350649350649352 0.13681102362204725
1 0.5070346320346321 0.5073818897637795 0.022186147186147188 0.12893700787401574
1 0.5081168831168831 0.514763779527559 0.023809523809523808 0.1309055118110236
1 0.5108225108225108 0.5137795275590551 0.016774891774891776 0.12598425196850394