1 0.4126082251082251 0.44438976377952755 0.06222943722943723 0.32381889763779526
1 0.41044372294372294 0.4512795275590551 0.04383116883116883 0.2618110236220472
1 0.4109848484848485 0.4498031496062992 0.07088744588744589 0.3198818897637795
1 0.4126082251082251 0.45226377952755903 0.049783549783549784 0.3090551181102362