1 0.476461038961039 0.5216535433070866 0.06655844155844155 0.36811023622047245
1 0.4759199134199134 0.5260826771653543 0.04707792207792208 0.2952755905511811
1 0.4751082251082251 0.5246062992125984 0.06601731601731602 0.3316929133858268
1 0.476461038961039 0.5265748031496063 0.04599567099567099 0.29232283464566927