1 0.6536796536796536 0.5802165354330708 0.06222943722943723 0.33070866141732286
1 0.6536796536796536 0.5792322834645669 0.04383116883116883 0.3090551181102362
1 0.6550324675324676 0.5738188976377953 0.05844155844155844 0.33562992125984253
1 0.6563852813852814 0.5718503937007874 0.04707792207792208 0.3080708661417323