1 0.6569264069264069 0.577755905511811 0.06385281385281386 0.3346456692913386
1 0.6550324675324676 0.5738188976377953 0.0367965367965368 0.30413385826771655
1 0.6547619047619048 0.5748031496062992 0.05952380952380952 0.33366141732283466
1 0.6569264069264069 0.577755905511811 0.041666666666666664 0.3001968503937008