1 0.691017316017316 0.5615157480314961 0.054653679653679656 0.2795275590551181
1 0.6842532467532467 0.5674212598425197 0.023268398268398268 0.2372047244094488
1 0.7326839826839827 0.514763779527559 0.016233766233766232 0.08464566929133858
1 0.7321428571428571 0.5083661417322834 0.0091991341991342 0.060039370078740155
1 0.32386363636363635 0.5088582677165354 0.01948051948051948 0.06988188976377953
1 0.32332251082251084 0.5118110236220472 0.010822510822510822 0.05905511811023622
1 0.7287472811612216 0.4275590566199596 0.6846862681821084 0.42563130513991876 0.6656309848864855 0.43664890179422317 0.6647647815786565 0.46812771506876627 0.6751586926163315 0.49331074167197203 0.6777570382116813 0.524789554946515 0.6552372060128794 0.5358071516008195 0.6708279404053232 0.5720078949404725 0.6803555159711001 0.5924689914785685 0.6725602148569126 0.6145041847871772 0.656969480464469 0.6192261148522872 0.6690955337896647 0.6507049281268302 0.6794894448273398 0.6821836813603018 0.6959462503635439 0.696349051268132 0.7236630380811833 0.7026448379394692 0.7297260647437811 0.7010709212921705
1 0.7321428571428571 0.5093503937007874 0.008116883116883116 0.07283464566929133
1 0.32196969696969696 0.5098425196850394 0.013528138528138528 0.05511811023622047