1 0.3538906926406927 0.5146259842519685 0.014583333333333334 0.06467519685039369
1 0.6835497835497836 0.5729724409448819 0.04619047619047619 0.27981299212598426
1 0.687797619047619 0.5757874015748031 0.03150432900432901 0.24044291338582677
1 0.7511796536796537 0.5139173228346456 0.02685064935064935 0.10826771653543307
1 0.7542748917748918 0.5153248031496064 0.014485930735930736 0.0801476377952756
1 0.3519588744588744 0.5118110236220472 0.01689935064935065 0.06749015748031495