1 0.4354329004329004 0.594773622047244 0.016883116883116882 0.05343503937007874
1 0.43582251082251083 0.5961712598425197 0.011471861471861472 0.05062007874015748
1 0.7009361471861472 0.5778937007874015 0.06705627705627706 0.2474704724409449
1 0.7013257575757575 0.5786023622047244 0.038457792207792205 0.24887795275590552
1 0.8296374458874459 0.5926574803149606 0.018333333333333333 0.08296259842519686