1 0.48863636363636365 0.6643700787401575 0.010822510822510822 0.05216535433070866
1 0.7183441558441559 0.5989173228346457 0.06764069264069264 0.2677165354330709
1 0.724025974025974 0.6038385826771654 0.05303030303030303 0.23818897637795275
1 0.7148268398268398 0.6053149606299213 0.024350649350649352 0.22539370078740156
1 0.8828463203463204 0.65501968503937 0.016233766233766232 0.07677165354330709