1 0.4878246753246753 0.6687992125984252 0.0091991341991342 0.0610236220472441
1 0.7164502164502164 0.5920275590551181 0.07305194805194805 0.2618110236220472
1 0.7126623376623377 0.6048228346456693 0.030844155844155844 0.24901574803149606
1 0.7196969696969697 0.609251968503937 0.023268398268398268 0.2017716535433071
1 0.8847402597402597 0.6579724409448819 0.015692640692640692 0.08267716535433071