1 0.8860930735930735 0.7160433070866141 0.02002164502164502 0.08070866141732283
1 0.7156385281385281 0.6038385826771654 0.07142857142857142 0.2578740157480315
1 0.7126623376623377 0.6186023622047244 0.030844155844155844 0.22440944881889763
1 0.4875541125541126 0.7263779527559056 0.011363636363636364 0.04625984251968504