1 0.7058982683982684 0.6166338582677166 0.06764069264069264 0.25196850393700787
1 0.6956168831168831 0.6220472440944882 0.04220779220779221 0.22933070866141733
1 0.8417207792207793 0.749507874015748 0.027056277056277056 0.06200787401574803
1 0.7069805194805194 0.6146653543307087 0.07142857142857142 0.24803149606299213
1 0.7026515151515151 0.6264763779527559 0.02813852813852814 0.22440944881889763
1 0.8417207792207793 0.750492125984252 0.0183982683982684 0.05216535433070866