1 0.6666666666666666 0.562992125984252 0.07738095238095238 0.3248031496062992
1 0.6669372294372294 0.5654527559055118 0.04383116883116883 0.31200787401574803
1 0.6645021645021645 0.5674212598425197 0.07305194805194805 0.33562992125984253
1 0.6672077922077922 0.5639763779527559 0.050865800865800864 0.2952755905511811