1 0.6753246753246753 0.5659448818897638 0.0670995670995671 0.37303149606299213
1 0.6699134199134199 0.5679133858267716 0.061147186147186144 0.3316929133858268
1 0.6731601731601732 0.562992125984252 0.06872294372294373 0.34153543307086615
1 0.671102907148468 0.39651293588301467 0.6896506446531847 0.3782339707536558 0.7136081389301102 0.40073115860517433 0.7128353165340803 0.4625984251968504 0.7128353165340803 0.516029246344207 0.7136081389301102 0.531496062992126 0.7151537837221699 0.5736782902137234 0.7081983821579011 0.6341394825646796 0.7190178957023191 0.6566366704161981 0.7136081389301103 0.7100674915635545 0.7081983821579012 0.7410011248593927 0.6525551696437515 0.7424071991001127 0.6432813008913932 0.40213723284589437