1 0.6807359307359307 0.5659448818897638 0.07954545454545454 0.3809055118110236
1 0.6834415584415584 0.5693897637795275 0.047619047619047616 0.328740157480315
1 0.6450216403034049 0.4049493813273342 0.6819224206928859 0.3993250843644546 0.7128353165340803 0.4035433070866142 0.7182450733062892 0.43025871766029244 0.7128353165340803 0.485095613048369 0.71438096132614 0.5258717660292463 0.7236548300784984 0.5596175478065242 0.7166994285142296 0.6144544431946007 0.7182450733062892 0.6510123734533183 0.7259732972665879 0.6805399325084365 0.7151537837221699 0.7283464566929134 0.7151537837221699 0.7677165354330708 0.6479182352675722 0.7592800899887514
1 0.6842532467532467 0.577263779527559 0.07683982683982683 0.35334645669291337