1 0.683982683982684 0.577755905511811 0.07196969696969698 0.36811023622047245
1 0.6831709956709957 0.5841535433070866 0.040584415584415584 0.3218503937007874
1 0.6829004329004329 0.5821850393700787 0.07683982683982683 0.36515748031496065
1 0.7174722509102593 0.4035433070866143 0.7275189420586476 0.42885264341957263 0.7166994285142296 0.4822834645669291 0.7128353165340805 0.5230596175478064 0.7236548300784984 0.5455568053993253 0.71438096132614 0.6144544431946006 0.7166994285142296 0.6664791901012375 0.7267461196626177 0.6889763779527559 0.7151537837221699 0.718503937007874 0.7190178957023191 0.7536557930258717 0.650236702455662 0.7550618672665919 0.6502367024556619 0.40213723284589425