1 0.6774891774891775 0.5851377952755905 0.07251082251082251 0.4045275590551181
1 0.6912878787878788 0.6038385826771654 0.04004329004329004 0.3110236220472441
1 0.6866883116883117 0.5959645669291339 0.08008658008658008 0.3631889763779528
1 0.6473407497653715 0.4218222722159731 0.7151537837221699 0.41901012373453317 0.7313830540387969 0.44431946006749157 0.7166994285142296 0.5033745781777279 0.7159266061181997 0.5469628796400452 0.7267461196626177 0.5750843644544432 0.7166994285142296 0.6242969628796401 0.7166994285142296 0.673509561304837 0.7290645868507072 0.7044431946006751 0.7120624941380505 0.750843644544432 0.7128353165340803 0.7733408323959506 0.6471454128715426 0.7761529808773905