1 0.685064935064935 0.6171259842519685 0.07575757575757576 0.4045275590551181
1 0.6937229437229437 0.6333661417322834 0.05248917748917749 0.327755905511811
1 0.6877705627705628 0.6171259842519685 0.07034632034632035 0.3828740157480315
1 0.685064935064935 0.6264763779527559 0.047619047619047616 0.34448818897637795