1 0.6831709956709957 0.625 0.07792207792207792 0.39763779527559057
1 0.6834415584415584 0.6269685039370079 0.047619047619047616 0.31791338582677164
1 0.6764069264069265 0.6205708661417323 0.06655844155844155 0.359251968503937
1 0.685064935064935 0.6323818897637795 0.027056277056277056 0.29133858267716534