1 0.6569264069264069 0.593996062992126 0.07305194805194805 0.34153543307086615
1 0.654491341991342 0.5900590551181102 0.04707792207792208 0.33562992125984253
1 0.6528679653679653 0.5861220472440944 0.05844155844155844 0.33366141732283466
1 0.6593614718614719 0.5974409448818898 0.02813852813852814 0.3080708661417323