0 0.6050974025974026 0.47876968503937006 0.01916125541125541 0.07733267716535433
0 0.6738852813852814 0.5575098425196849 0.06706709956709957 0.276998031496063
0 0.6688636363636363 0.5561023622047244 0.03383116883116883 0.24887795275590552
0 0.1579491341991342 0.47946850393700785 0.02478896103896104 0.07874015748031496