1 0.6761363636363636 0.5137795275590551 0.08712121212121213 0.43208661417322836
1 0.6734307359307359 0.5162401574803149 0.08333333333333333 0.4045275590551181
1 0.6704545454545454 0.514763779527559 0.07088744588744589 0.4104330708661417
1 0.6742424242424242 0.5196850393700787 0.056818181818181816 0.3838582677165354