1 0.6739718614718615 0.5123031496062992 0.08116883116883117 0.41437007874015747
1 0.6723484848484849 0.515255905511811 0.08712121212121213 0.42913385826771655
1 0.6712662337662337 0.5162401574803149 0.07088744588744589 0.41338582677165353
1 0.6766774891774892 0.5231299212598425 0.041666666666666664 0.37106299212598426