1 0.6739718614718615 0.5132874015748031 0.08387445887445888 0.422244094488189
1 0.6747835497835498 0.5123031496062992 0.0946969696969697 0.42913385826771655
1 0.6707251082251082 0.5137795275590551 0.07305194805194805 0.42618110236220474
1 0.6712662337662337 0.5098425196850394 0.05411255411255411 0.3868110236220472