1 0.6617965367965368 0.5 0.0817099567099567 0.4094488188976378
1 0.6623376623376623 0.4940944881889764 0.08712121212121213 0.42618110236220474
1 0.6599025974025974 0.4926181102362205 0.07467532467532467 0.4005905511811024
1 0.6590909090909091 0.48868110236220474 0.049783549783549784 0.375