1 0.654491341991342 0.48031496062992124 0.08279220779220779 0.4124015748031496
1 0.6517857142857143 0.48179133858267714 0.07088744588744589 0.4005905511811024
1 0.6525974025974026 0.48179133858267714 0.06926406926406926 0.39763779527559057
1 0.6561147186147186 0.4808070866141732 0.05303030303030303 0.36515748031496065