1 0.6425865800865801 0.46210629921259844 0.0817099567099567 0.4005905511811024
1 0.6444805194805194 0.4498031496062992 0.08116883116883117 0.41338582677165353
1 0.6433982683982684 0.453248031496063 0.06764069264069264 0.41437007874015747
1 0.6401515151515151 0.4507874015748031 0.05248917748917749 0.37303149606299213