1 0.6382575757575758 0.43946850393700787 0.0854978354978355 0.3927165354330709
1 0.6320346320346321 0.4375 0.08712121212121213 0.3828740157480315
1 0.6352813852813853 0.43503937007874016 0.07142857142857142 0.3838582677165354
1 0.6360930735930735 0.43356299212598426 0.049783549783549784 0.34448818897637795