1 0.6336580086580087 0.41781496062992124 0.07954545454545454 0.39665354330708663
1 0.6301406926406926 0.4197834645669291 0.07738095238095238 0.39763779527559057
1 0.6282467532467533 0.41633858267716534 0.07142857142857142 0.390748031496063
1 0.6268939393939394 0.40994094488188976 0.05140692640692641 0.35531496062992124