1 0.6239177489177489 0.4015748031496063 0.0817099567099567 0.4124015748031496
1 0.6263528138528138 0.3941929133858268 0.06655844155844155 0.37303149606299213
1 0.6263528138528138 0.4050196850393701 0.06601731601731602 0.37401574803149606
1 0.6233766233766234 0.4020669291338583 0.04924242424242424 0.3454724409448819