1 0.6217532467532467 0.390255905511811 0.07738095238095238 0.39468503937007876
1 0.6198593073593074 0.3858267716535433 0.07954545454545454 0.39468503937007876
1 0.6209415584415584 0.3882874015748031 0.06926406926406926 0.3828740157480315
1 0.6193181818181818 0.3882874015748031 0.05248917748917749 0.3484251968503937