1 0.5938852813852814 0.3887795275590551 0.07251082251082251 0.375
1 0.5949675324675324 0.3887795275590551 0.07954545454545454 0.39468503937007876
1 0.5944264069264069 0.39320866141732286 0.07034632034632035 0.375
1 0.5938852813852814 0.3882874015748031 0.04599567099567099 0.328740157480315