1 0.5533008658008658 0.3868110236220472 0.07196969696969698 0.37106299212598426
1 0.5524891774891775 0.390255905511811 0.05303030303030303 0.3218503937007874
1 0.553030303030303 0.3873031496062992 0.060064935064935064 0.327755905511811
1 0.5514069264069265 0.3922244094488189 0.032467532467532464 0.2844488188976378