1 0.549512987012987 0.3853346456692913 0.07196969696969698 0.36023622047244097
1 0.5497835497835498 0.3971456692913386 0.05248917748917749 0.3051181102362205
1 0.5497835497835498 0.3887795275590551 0.0633116883116883 0.3188976377952756
1 0.5514069264069265 0.39665354330708663 0.04004329004329004 0.2952755905511811