1 0.549512987012987 0.39173228346456695 0.06872294372294373 0.35334645669291337
1 0.5487012987012987 0.3922244094488189 0.04220779220779221 0.31791338582677164
1 0.545995670995671 0.3937007874015748 0.060064935064935064 0.32381889763779526
1 0.547077922077922 0.39173228346456695 0.045454545454545456 0.2992125984251969