1 0.5332792207792207 0.41486220472440943 0.07792207792207792 0.3484251968503937
1 0.5354437229437229 0.4168307086614173 0.040584415584415584 0.3051181102362205
1 0.5349025974025974 0.41338582677165353 0.06764069264069264 0.32677165354330706
1 0.529491341991342 0.42618110236220474 0.04112554112554113 0.3080708661417323