1 0.5335497835497836 0.4168307086614173 0.07413419913419914 0.3612204724409449
1 0.5332792207792207 0.42322834645669294 0.04220779220779221 0.29822834645669294
1 0.5324675324675324 0.41633858267716534 0.0698051948051948 0.32086614173228345
1 0.5338203463203464 0.4187992125984252 0.039502164502164504 0.297244094488189