1 0.5281385281385281 0.4251968503937008 0.07738095238095238 0.35334645669291337
1 0.5238095238095238 0.421751968503937 0.05627705627705628 0.31496062992125984
1 0.5327380952380952 0.4330708661417323 0.0633116883116883 0.3188976377952756
1 0.5332792207792207 0.42913385826771655 0.04707792207792208 0.2795275590551181