1 0.5297619047619048 0.421751968503937 0.07251082251082251 0.3543307086614173
1 0.5286796536796536 0.4315944881889764 0.04220779220779221 0.3090551181102362
1 0.533008658008658 0.43208661417322836 0.07088744588744589 0.32381889763779526
1 0.5338203463203464 0.4330708661417323 0.04112554112554113 0.3061023622047244