1 0.5451839826839827 0.44586614173228345 0.07088744588744589 0.3405511811023622
1 0.5370670995670995 0.4325787401574803 0.05952380952380952 0.3188976377952756
1 0.5422077922077922 0.4438976377952756 0.07683982683982683 0.34744094488188976
1 0.5443722943722944 0.4478346456692913 0.041666666666666664 0.32381889763779526