1 0.5857683982683982 0.468996062992126 0.06385281385281386 0.3809055118110236
1 0.5795454545454546 0.4596456692913386 0.06547619047619048 0.37106299212598426
1 0.5817099567099567 0.4645669291338583 0.06926406926406926 0.37303149606299213
1 0.5806277056277056 0.46161417322834647 0.05357142857142857 0.343503937007874