1 0.641504329004329 0.4808070866141732 0.0854978354978355 0.4104330708661417
1 0.6423160173160173 0.4876968503937008 0.05303030303030303 0.343503937007874
1 0.6331168831168831 0.4763779527559055 0.07034632034632035 0.3927165354330709
1 0.6331168831168831 0.4729330708661417 0.04274891774891775 0.35826771653543305