1 0.6423160173160173 0.47687007874015747 0.0670995670995671 0.38779527559055116
1 0.6374458874458875 0.4793307086614173 0.040584415584415584 0.3572834645669291
1 0.6401515151515151 0.47982283464566927 0.0698051948051948 0.4074803149606299
1 0.6382575757575758 0.4744094488188976 0.04599567099567099 0.36515748031496065