1 0.6666666666666666 0.483759842519685 0.07846320346320346 0.38484251968503935
1 0.6723484848484849 0.48523622047244097 0.05303030303030303 0.3631889763779528
1 0.6645021645021645 0.47883858267716534 0.07521645021645022 0.4094488188976378
1 0.6701839826839827 0.4881889763779528 0.049783549783549784 0.3887795275590551