0 0.24270833333333333 0.3861111111111111 0.014583333333333334 0.07222222222222222
0 0.2911458333333333 0.5111111111111111 0.021875 0.1111111111111111
0 0.48020833333333335 0.5833333333333334 0.03333333333333333 0.08518518518518518
0 0.5369791666666667 0.7759259259259259 0.042708333333333334 0.1259259259259259
0 0.5645833333333333 0.3472222222222222 0.0125 0.053703703703703705
0 0.8135416666666667 0.4703703703703704 0.01875 0.07037037037037037