0 0.790625 0.4689814814814815 0.009375 0.05555555555555555
0 0.5197916666666667 0.3837962962962963 0.007291666666666667 0.03611111111111111
0 0.6 0.7337962962962963 0.0203125 0.1
0 0.4895833333333333 0.575 0.016145833333333335 0.07407407407407407
0 0.2713541666666667 0.5412037037037037 0.020833333333333332 0.062037037037037036
0 0.18177083333333333 0.4337962962962963 0.009895833333333333 0.05185185185185185