0 0.81328125 0.4685185185185185 0.008854166666666666 0.05555555555555555
0 0.5645833333333333 0.35185185185185186 0.009375 0.040740740740740744
0 0.5411458333333333 0.7782407407407408 0.025 0.10092592592592593
0 0.47890625 0.5800925925925926 0.019270833333333334 0.0787037037037037
0 0.2908854166666667 0.5194444444444445 0.018229166666666668 0.06481481481481481
0 0.23723958333333334 0.39675925925925926 0.0171875 0.04537037037037037