0 0.2671875 0.5481481481481482 0.019270833333333334 0.06851851851851852
0 0.4953125 0.5805555555555556 0.014583333333333334 0.075
0 0.6276041666666666 0.7416666666666667 0.0171875 0.0962962962962963
0 0.7783854166666667 0.4634259259259259 0.010416666666666666 0.05462962962962963
0 0.50390625 0.38055555555555554 0.009375 0.037037037037037035