0 0.2734375 0.5425925925925926 0.030208333333333334 0.07037037037037037
0 0.49114583333333334 0.5842592592592593 0.017708333333333333 0.08703703703703704
0 0.6072916666666667 0.7361111111111112 0.025 0.09444444444444444
0 0.7859375 0.4638888888888889 0.015625 0.07222222222222222
0 0.51875 0.3925925925925926 0.014583333333333334 0.05925925925925926