0 0.74609375 0.4537037037037037 0.0140625 0.046296296296296294
0 0.7049479166666667 0.7296296296296296 0.0203125 0.1
0 0.5151041666666667 0.5879629629629629 0.0125 0.07592592592592592
0 0.25416666666666665 0.5800925925925926 0.011458333333333333 0.07685185185185185
0 0.4466145833333333 0.38842592592592595 0.0067708333333333336 0.03518518518518519