0 0.18177083333333333 0.4388888888888889 0.026041666666666668 0.05925925925925926
0 0.2708333333333333 0.5370370370370371 0.025 0.06296296296296296
0 0.4869791666666667 0.5796296296296296 0.040625 0.08518518518518518
0 0.5979166666666667 0.7416666666666667 0.052083333333333336 0.12407407407407407
0 0.7880208333333333 0.47314814814814815 0.021875 0.07222222222222222
0 0.5208333333333334 0.38796296296296295 0.016666666666666666 0.046296296296296294