0 0.44140625 0.3958333333333333 0.007291666666666667 0.03888888888888889
0 0.7419270833333333 0.45555555555555555 0.008333333333333333 0.05
0 0.7096354166666666 0.7171296296296297 0.022916666666666665 0.1037037037037037
0 0.5184895833333333 0.5875 0.013541666666666667 0.07314814814814814
0 0.25416666666666665 0.5824074074074074 0.0203125 0.05925925925925926