0 0.3171875 0.575925925925926 0.019791666666666666 0.07777777777777778
0 0.5682291666666667 0.5962962962962963 0.021875 0.0962962962962963
0 0.5145833333333333 0.45 0.010416666666666666 0.04814814814814815
0 0.7479166666666667 0.712037037037037 0.03125 0.1425925925925926
0 0.8135416666666667 0.5037037037037037 0.01875 0.06296296296296296