0 0.77890625 0.46435185185185185 0.0140625 0.05277777777777778
0 0.50546875 0.38333333333333336 0.010416666666666666 0.04259259259259259
0 0.6221354166666667 0.7421296296296296 0.0171875 0.09814814814814815
0 0.4953125 0.5800925925925926 0.011979166666666667 0.07037037037037037
0 0.27005208333333336 0.5476851851851852 0.013020833333333334 0.06388888888888888