0 0.3171875 0.6675925925925926 0.015625 0.07222222222222222
0 0.559375 0.6925925925925925 0.014583333333333334 0.08148148148148149
0 0.7307291666666667 0.8777777777777778 0.023958333333333335 0.1
0 0.8083333333333333 0.5509259259259259 0.008333333333333333 0.053703703703703705
0 0.5145833333333333 0.46111111111111114 0.00625 0.037037037037037035