0 0.56328125 0.35138888888888886 0.008854166666666666 0.03611111111111111
0 0.8138020833333334 0.4689814814814815 0.0078125 0.05277777777777778
0 0.5390625 0.7763888888888889 0.025520833333333333 0.09722222222222222
0 0.47890625 0.5805555555555556 0.017708333333333333 0.07592592592592592
0 0.29348958333333336 0.5226851851851851 0.013020833333333334 0.06388888888888888
0 0.23697916666666666 0.3939814814814815 0.0109375 0.05092592592592592