0 0.8104166666666667 0.5111111111111111 0.016666666666666666 0.07037037037037037
0 0.7442708333333333 0.737037037037037 0.028125 0.1111111111111111
0 0.5614583333333333 0.6055555555555555 0.027083333333333334 0.1
0 0.5125 0.45092592592592595 0.020833333333333332 0.053703703703703705
0 0.3171875 0.5944444444444444 0.023958333333333335 0.07777777777777778