0 0.8143229166666667 0.4685185185185185 0.008854166666666666 0.05925925925925926
0 0.5408854166666667 0.7717592592592593 0.0203125 0.11388888888888889
0 0.5625 0.35462962962962963 0.007291666666666667 0.03888888888888889
0 0.48020833333333335 0.5763888888888888 0.018229166666666668 0.0712962962962963
0 0.2908854166666667 0.5175925925925926 0.016666666666666666 0.06481481481481481
0 0.23541666666666666 0.3962962962962963 0.0140625 0.044444444444444446