0 0.2903645833333333 0.5166666666666667 0.017708333333333333 0.06296296296296296
0 0.2359375 0.3925925925925926 0.016666666666666666 0.04814814814814815
0 0.56171875 0.35138888888888886 0.010416666666666666 0.03611111111111111
0 0.8138020833333334 0.4675925925925926 0.00625 0.05
0 0.5421875 0.7782407407407408 0.022916666666666665 0.09351851851851851
0 0.47890625 0.575925925925926 0.019270833333333334 0.07037037037037037