0 0.3190104166666667 0.8001574074074074 0.016494791666666668 0.07562037037037037
0 0.5473072916666666 0.8441388888888889 0.014755208333333332 0.07099074074074074
0 0.8003489583333334 0.625 0.012151041666666666 0.058638888888888886
0 0.5160572916666667 0.4706759259259259 0.009546875 0.04012037037037037