0 0.7864583333333334 0.5796296296296296 0.017708333333333333 0.09722222222222222
0 0.5453125 0.5449074074074074 0.013020833333333334 0.07592592592592592
0 0.25442708333333336 0.5537037037037037 0.014583333333333334 0.0787037037037037
0 0.3809895833333333 0.48657407407407405 0.0067708333333333336 0.040740740740740744