0 0.48723958333333334 0.37962962962962965 0.009375 0.03888888888888889
0 0.76875 0.4550925925925926 0.009895833333333333 0.053703703703703705
0 0.64765625 0.7430555555555556 0.015104166666666667 0.0962962962962963
0 0.49947916666666664 0.5833333333333334 0.014583333333333334 0.06944444444444445
0 0.2630208333333333 0.562962962962963 0.019270833333333334 0.053703703703703705